%YAML 1.1
%TAG !u! tag:unity3d.com,2011:
--- !u!1 &89252417147269310
GameObject:
  m_ObjectHideFlags: 0
  m_CorrespondingSourceObject: {fileID: 0}
  m_PrefabInstance: {fileID: 0}
  m_PrefabAsset: {fileID: 0}
  serializedVersion: 6
  m_Component:
  - component: {fileID: 8515982262302617077}
  - component: {fileID: 2642503985049044205}
  - component: {fileID: 27596738781907981}
  m_Layer: 5
  m_Name: CrossPromoButtonBase
  m_TagString: Untagged
  m_Icon: {fileID: 0}
  m_NavMeshLayer: 0
  m_StaticEditorFlags: 0
  m_IsActive: 1
--- !u!224 &8515982262302617077
RectTransform:
  m_ObjectHideFlags: 0
  m_CorrespondingSourceObject: {fileID: 0}
  m_PrefabInstance: {fileID: 0}
  m_PrefabAsset: {fileID: 0}
  m_GameObject: {fileID: 89252417147269310}
  m_LocalRotation: {x: 0, y: 0, z: 0, w: 1}
  m_LocalPosition: {x: 0, y: 0, z: 0}
  m_LocalScale: {x: 1, y: 1, z: 1}
  m_ConstrainProportionsScale: 0
  m_Children: []
  m_Father: {fileID: 0}
  m_RootOrder: 0
  m_LocalEulerAnglesHint: {x: 0, y: 0, z: 0}
  m_AnchorMin: {x: 0.5, y: 0.5}
  m_AnchorMax: {x: 0.5, y: 0.5}
  m_AnchoredPosition: {x: 0, y: 0}
  m_SizeDelta: {x: 100, y: 100}
  m_Pivot: {x: 0.5, y: 0.5}
--- !u!114 &2642503985049044205
MonoBehaviour:
  m_ObjectHideFlags: 0
  m_CorrespondingSourceObject: {fileID: 0}
  m_PrefabInstance: {fileID: 0}
  m_PrefabAsset: {fileID: 0}
  m_GameObject: {fileID: 89252417147269310}
  m_Enabled: 1
  m_EditorHideFlags: 0
  m_Script: {fileID: 11500000, guid: 845bc1d234b54467fa35d1f84b35f458, type: 3}
  m_Name: 
  m_EditorClassIdentifier: 
  CrossPromoConfig:
    MainApp:
      Id: 
      Title: 
      IconUrl: 
      PortraitBannerUrl: 
      LandscapeBannerUrl: 
      AndroidPackage: 
      IosITunesId: 
      Url: 
    AppInfos: []
  SetupOnStart: 1
  UseRemoteConfig: 1
  OnCrossPromoNotReady:
    m_PersistentCalls:
      m_Calls: []
  OnCrossPromoReady:
    m_PersistentCalls:
      m_Calls: []
  _uiDocument: {fileID: 27596738781907981}
  _mainScreenTemplate: {fileID: 9197481963319205126, guid: 19a12fce756c241c5b5aa33ee079ae88, type: 3}
  _appListTemplate: {fileID: 9197481963319205126, guid: fbd1b7647aa514e709066bebd72f40a2, type: 3}
  _appCellTemplate: {fileID: 9197481963319205126, guid: 0233a5f3feb55458d90b3afeb6ac8c56, type: 3}
--- !u!114 &27596738781907981
MonoBehaviour:
  m_ObjectHideFlags: 0
  m_CorrespondingSourceObject: {fileID: 0}
  m_PrefabInstance: {fileID: 0}
  m_PrefabAsset: {fileID: 0}
  m_GameObject: {fileID: 89252417147269310}
  m_Enabled: 0
  m_EditorHideFlags: 0
  m_Script: {fileID: 19102, guid: 0000000000000000e000000000000000, type: 0}
  m_Name: 
  m_EditorClassIdentifier: 
  m_PanelSettings: {fileID: 11400000, guid: d9d7944addd12469e81fbc3bddb9eb77, type: 2}
  m_ParentUI: {fileID: 0}
  sourceAsset: {fileID: 0}
  m_SortingOrder: 0
