{
  "dependencies": {
    "com.gilzoide.easy-project-settings": {
      "version": "https://github.com/gilzoide/unity-easy-project-settings.git#1.0.2",
      "depth": 0,
      "source": "git",
      "dependencies": {},
      "hash": "aa51401e05bfdb9237a38b21f015328239ba0e60"
    },
    "com.google.external-dependency-manager": {
      "version": "https://github.com/GameWorkstore/com.google.external-dependency-manager.git#1.2.176",
      "depth": 0,
      "source": "git",
      "dependencies": {},
      "hash": "e5f14b76c78fa087c42f6310d55b4583abf79699"
    },
    "com.google.firebase.analytics": {
      "version": "https://github.com/GameWorkstore/com.google.firebase.analytics.git#11.2.0",
      "depth": 0,
      "source": "git",
      "dependencies": {
        "com.google.firebase.app": "11.2.0"
      },
      "hash": "2e3e772af88456da88115e9313001d5834141bd5"
    },
    "com.google.firebase.app": {
      "version": "https://github.com/GameWorkstore/com.google.firebase.app.git#11.2.0",
      "depth": 0,
      "source": "git",
      "dependencies": {
        "com.google.external-dependency-manager": "1.2.176"
      },
      "hash": "982c1344d8b03563dc7b3fb87f519e6dab53cd1a"
    },
    "com.google.firebase.remote-config": {
      "version": "https://github.com/GameWorkstore/com.google.firebase.remote-config.git#11.2.0",
      "depth": 0,
      "source": "git",
      "dependencies": {
        "com.google.firebase.app": "11.2.0"
      },
      "hash": "becf055ac2602339698b8b6ef0e4fd58d81138e2"
    },
    "com.unity.2d.animation": {
      "version": "7.1.1",
      "depth": 1,
      "source": "registry",
      "dependencies": {
        "com.unity.2d.common": "6.0.7",
        "com.unity.2d.sprite": "1.0.0",
        "com.unity.modules.animation": "1.0.0",
        "com.unity.modules.uielements": "1.0.0"
      },
      "url": "https://packages.unity.com"
    },
    "com.unity.2d.aseprite": {
      "version": "1.1.4",
      "depth": 1,
      "source": "registry",
      "dependencies": {
        "com.unity.2d.common": "6.0.6",
        "com.unity.2d.sprite": "1.0.0",
        "com.unity.mathematics": "1.2.6",
        "com.unity.modules.animation": "1.0.0"
      },
      "url": "https://packages.unity.com"
    },
    "com.unity.2d.common": {
      "version": "6.0.7",
      "depth": 2,
      "source": "registry",
      "dependencies": {
        "com.unity.burst": "1.5.1",
        "com.unity.2d.sprite": "1.0.0",
        "com.unity.mathematics": "1.1.0",
        "com.unity.modules.uielements": "1.0.0"
      },
      "url": "https://packages.unity.com"
    },
    "com.unity.2d.path": {
      "version": "5.0.2",
      "depth": 2,
      "source": "registry",
      "dependencies": {},
      "url": "https://packages.unity.com"
    },
    "com.unity.2d.pixel-perfect": {
      "version": "5.0.3",
      "depth": 1,
      "source": "registry",
      "dependencies": {},
      "url": "https://packages.unity.com"
    },
    "com.unity.2d.psdimporter": {
      "version": "6.0.9",
      "depth": 1,
      "source": "registry",
      "dependencies": {
        "com.unity.2d.common": "6.0.7",
        "com.unity.2d.sprite": "1.0.0",
        "com.unity.2d.animation": "7.1.0"
      },
      "url": "https://packages.unity.com"
    },
    "com.unity.2d.sprite": {
      "version": "1.0.0",
      "depth": 1,
      "source": "builtin",
      "dependencies": {}
    },
    "com.unity.2d.spriteshape": {
      "version": "7.0.7",
      "depth": 1,
      "source": "registry",
      "dependencies": {
        "com.unity.2d.path": "5.0.2",
        "com.unity.2d.common": "6.0.6",
        "com.unity.mathematics": "1.1.0",
        "com.unity.modules.physics2d": "1.0.0"
      },
      "url": "https://packages.unity.com"
    },
    "com.unity.2d.tilemap": {
      "version": "1.0.0",
      "depth": 1,
      "source": "builtin",
      "dependencies": {}
    },
    "com.unity.2d.tilemap.extras": {
      "version": "2.2.7",
      "depth": 1,
      "source": "registry",
      "dependencies": {
        "com.unity.ugui": "1.0.0",
        "com.unity.2d.tilemap": "1.0.0",
        "com.unity.modules.tilemap": "1.0.0",
        "com.unity.modules.jsonserialize": "1.0.0"
      },
      "url": "https://packages.unity.com"
    },
    "com.unity.burst": {
      "version": "1.8.17",
      "depth": 3,
      "source": "registry",
      "dependencies": {
        "com.unity.mathematics": "1.2.1",
        "com.unity.modules.jsonserialize": "1.0.0"
      },
      "url": "https://packages.unity.com"
    },
    "com.unity.collab-proxy": {
      "version": "2.4.4",
      "depth": 0,
      "source": "registry",
      "dependencies": {},
      "url": "https://packages.unity.com"
    },
    "com.unity.editorcoroutines": {
      "version": "1.0.0",
      "depth": 1,
      "source": "registry",
      "dependencies": {},
      "url": "https://packages.unity.com"
    },
    "com.unity.ext.nunit": {
      "version": "1.0.6",
      "depth": 1,
      "source": "registry",
      "dependencies": {},
      "url": "https://packages.unity.com"
    },
    "com.unity.feature.2d": {
      "version": "2.0.1",
      "depth": 0,
      "source": "builtin",
      "dependencies": {
        "com.unity.2d.animation": "7.1.1",
        "com.unity.2d.pixel-perfect": "5.0.3",
        "com.unity.2d.psdimporter": "6.0.9",
        "com.unity.2d.sprite": "1.0.0",
        "com.unity.2d.spriteshape": "7.0.7",
        "com.unity.2d.tilemap": "1.0.0",
        "com.unity.2d.tilemap.extras": "2.2.7",
        "com.unity.2d.aseprite": "1.1.4"
      }
    },
    "com.unity.ide.rider": {
      "version": "3.0.31",
      "depth": 0,
      "source": "registry",
      "dependencies": {
        "com.unity.ext.nunit": "1.0.6"
      },
      "url": "https://packages.unity.com"
    },
    "com.unity.ide.visualstudio": {
      "version": "2.0.22",
      "depth": 0,
      "source": "registry",
      "dependencies": {
        "com.unity.test-framework": "1.1.9"
      },
      "url": "https://packages.unity.com"
    },
    "com.unity.ide.vscode": {
      "version": "1.2.5",
      "depth": 0,
      "source": "registry",
      "dependencies": {},
      "url": "https://packages.unity.com"
    },
    "com.unity.mathematics": {
      "version": "1.2.6",
      "depth": 2,
      "source": "registry",
      "dependencies": {},
      "url": "https://packages.unity.com"
    },
    "com.unity.memoryprofiler": {
      "version": "0.7.1-preview.1",
      "depth": 0,
      "source": "registry",
      "dependencies": {
        "com.unity.editorcoroutines": "1.0.0"
      },
      "url": "https://packages.unity.com"
    },
    "com.unity.mobile.android-logcat": {
      "version": "1.4.2",
      "depth": 0,
      "source": "registry",
      "dependencies": {},
      "url": "https://packages.unity.com"
    },
    "com.unity.nuget.newtonsoft-json": {
      "version": "3.2.1",
      "depth": 1,
      "source": "registry",
      "dependencies": {},
      "url": "https://packages.unity.com"
    },
    "com.unity.test-framework": {
      "version": "1.1.33",
      "depth": 0,
      "source": "registry",
      "dependencies": {
        "com.unity.ext.nunit": "1.0.6",
        "com.unity.modules.imgui": "1.0.0",
        "com.unity.modules.jsonserialize": "1.0.0"
      },
      "url": "https://packages.unity.com"
    },
    "com.unity.textmeshpro": {
      "version": "3.0.6",
      "depth": 0,
      "source": "registry",
      "dependencies": {
        "com.unity.ugui": "1.0.0"
      },
      "url": "https://packages.unity.com"
    },
    "com.unity.timeline": {
      "version": "1.6.5",
      "depth": 0,
      "source": "registry",
      "dependencies": {
        "com.unity.modules.audio": "1.0.0",
        "com.unity.modules.director": "1.0.0",
        "com.unity.modules.animation": "1.0.0",
        "com.unity.modules.particlesystem": "1.0.0"
      },
      "url": "https://packages.unity.com"
    },
    "com.unity.ugui": {
      "version": "1.0.0",
      "depth": 0,
      "source": "builtin",
      "dependencies": {
        "com.unity.modules.ui": "1.0.0",
        "com.unity.modules.imgui": "1.0.0"
      }
    },
    "com.unity.visualscripting": {
      "version": "1.9.4",
      "depth": 0,
      "source": "registry",
      "dependencies": {
        "com.unity.ugui": "1.0.0",
        "com.unity.modules.jsonserialize": "1.0.0"
      },
      "url": "https://packages.unity.com"
    },
    "io.supercompany.analytics": {
      "version": "https://gitlab.com/super-company-git/supercompany-analytics.git?path=/Packages/io.supercompany.analytics#1.5.0",
      "depth": 0,
      "source": "git",
      "dependencies": {
        "com.unity.nuget.newtonsoft-json": "3.0.2",
        "io.supercompany.core": "1.5.0"
      },
      "hash": "5eabd7a523438910e965263fd5f41a8050b2c474"
    },
    "io.supercompany.core": {
      "version": "https://gitlab.com/super-company-git/supercompany-unity-core.git?path=/Packages/io.supercompany.core#1.5.0",
      "depth": 0,
      "source": "git",
      "dependencies": {
        "com.unity.nuget.newtonsoft-json": "3.0.2"
      },
      "hash": "2cf4d5c3349d8ab773d6779e0fbbbbb8b256afb3"
    },
    "io.supercompany.cross-promo": {
      "version": "file:io.supercompany.cross-promo",
      "depth": 0,
      "source": "embedded",
      "dependencies": {
        "io.supercompany.core": "1.5.0"
      }
    },
    "io.supercompany.firebase": {
      "version": "https://gitlab.com/super-company-git/supercompany-firebase.git?path=/Packages/io.supercompany.firebase#1.2.3",
      "depth": 0,
      "source": "git",
      "dependencies": {
        "io.supercompany.core": "1.5.0-preview1",
        "com.google.firebase.app": "1.0.0"
      },
      "hash": "7354e212e9ba5cdce7c5f93450a346bfe4f98863"
    },
    "io.supercompany.remote-config": {
      "version": "https://gitlab.com/super-company-git/supercompany-remote-config.git?path=/Packages/io.supercompany.remote-config#2.2.1",
      "depth": 0,
      "source": "git",
      "dependencies": {
        "com.google.firebase.remote-config": "1.0.0",
        "com.unity.nuget.newtonsoft-json": "3.0.2",
        "io.supercompany.core": "1.5.0",
        "io.supercompany.firebase": "1.2.3"
      },
      "hash": "8aa388b7172f95bc70320a71326bdf867f7303d9"
    },
    "io.supercompany.url-scheme": {
      "version": "https://gitlab.com/super-company-git/supercompany-url-scheme.git?path=/Packages/io.supercompany.url-scheme#1.0.0",
      "depth": 0,
      "source": "git",
      "dependencies": {
        "com.gilzoide.easy-project-settings": "1.0.0"
      },
      "hash": "63060b16d10dede387531edc013bbcb45f1bae10"
    },
    "io.supercompany.xcode-disable-bitcode": {
      "version": "https://gitlab.com/super-company-git/unity-xcode-disable-bitcode.git#1.0.0",
      "depth": 0,
      "source": "git",
      "dependencies": {},
      "hash": "2b4351f8503f493b560f85e074ed63400ea9ef0b"
    },
    "com.unity.modules.ai": {
      "version": "1.0.0",
      "depth": 0,
      "source": "builtin",
      "dependencies": {}
    },
    "com.unity.modules.androidjni": {
      "version": "1.0.0",
      "depth": 0,
      "source": "builtin",
      "dependencies": {}
    },
    "com.unity.modules.animation": {
      "version": "1.0.0",
      "depth": 0,
      "source": "builtin",
      "dependencies": {}
    },
    "com.unity.modules.assetbundle": {
      "version": "1.0.0",
      "depth": 0,
      "source": "builtin",
      "dependencies": {}
    },
    "com.unity.modules.audio": {
      "version": "1.0.0",
      "depth": 0,
      "source": "builtin",
      "dependencies": {}
    },
    "com.unity.modules.cloth": {
      "version": "1.0.0",
      "depth": 0,
      "source": "builtin",
      "dependencies": {
        "com.unity.modules.physics": "1.0.0"
      }
    },
    "com.unity.modules.director": {
      "version": "1.0.0",
      "depth": 0,
      "source": "builtin",
      "dependencies": {
        "com.unity.modules.audio": "1.0.0",
        "com.unity.modules.animation": "1.0.0"
      }
    },
    "com.unity.modules.imageconversion": {
      "version": "1.0.0",
      "depth": 0,
      "source": "builtin",
      "dependencies": {}
    },
    "com.unity.modules.imgui": {
      "version": "1.0.0",
      "depth": 0,
      "source": "builtin",
      "dependencies": {}
    },
    "com.unity.modules.jsonserialize": {
      "version": "1.0.0",
      "depth": 0,
      "source": "builtin",
      "dependencies": {}
    },
    "com.unity.modules.particlesystem": {
      "version": "1.0.0",
      "depth": 0,
      "source": "builtin",
      "dependencies": {}
    },
    "com.unity.modules.physics": {
      "version": "1.0.0",
      "depth": 0,
      "source": "builtin",
      "dependencies": {}
    },
    "com.unity.modules.physics2d": {
      "version": "1.0.0",
      "depth": 0,
      "source": "builtin",
      "dependencies": {}
    },
    "com.unity.modules.screencapture": {
      "version": "1.0.0",
      "depth": 0,
      "source": "builtin",
      "dependencies": {
        "com.unity.modules.imageconversion": "1.0.0"
      }
    },
    "com.unity.modules.subsystems": {
      "version": "1.0.0",
      "depth": 1,
      "source": "builtin",
      "dependencies": {
        "com.unity.modules.jsonserialize": "1.0.0"
      }
    },
    "com.unity.modules.terrain": {
      "version": "1.0.0",
      "depth": 0,
      "source": "builtin",
      "dependencies": {}
    },
    "com.unity.modules.terrainphysics": {
      "version": "1.0.0",
      "depth": 0,
      "source": "builtin",
      "dependencies": {
        "com.unity.modules.physics": "1.0.0",
        "com.unity.modules.terrain": "1.0.0"
      }
    },
    "com.unity.modules.tilemap": {
      "version": "1.0.0",
      "depth": 0,
      "source": "builtin",
      "dependencies": {
        "com.unity.modules.physics2d": "1.0.0"
      }
    },
    "com.unity.modules.ui": {
      "version": "1.0.0",
      "depth": 0,
      "source": "builtin",
      "dependencies": {}
    },
    "com.unity.modules.uielements": {
      "version": "1.0.0",
      "depth": 0,
      "source": "builtin",
      "dependencies": {
        "com.unity.modules.ui": "1.0.0",
        "com.unity.modules.imgui": "1.0.0",
        "com.unity.modules.jsonserialize": "1.0.0",
        "com.unity.modules.uielementsnative": "1.0.0"
      }
    },
    "com.unity.modules.uielementsnative": {
      "version": "1.0.0",
      "depth": 1,
      "source": "builtin",
      "dependencies": {
        "com.unity.modules.ui": "1.0.0",
        "com.unity.modules.imgui": "1.0.0",
        "com.unity.modules.jsonserialize": "1.0.0"
      }
    },
    "com.unity.modules.umbra": {
      "version": "1.0.0",
      "depth": 0,
      "source": "builtin",
      "dependencies": {}
    },
    "com.unity.modules.unityanalytics": {
      "version": "1.0.0",
      "depth": 0,
      "source": "builtin",
      "dependencies": {
        "com.unity.modules.unitywebrequest": "1.0.0",
        "com.unity.modules.jsonserialize": "1.0.0"
      }
    },
    "com.unity.modules.unitywebrequest": {
      "version": "1.0.0",
      "depth": 0,
      "source": "builtin",
      "dependencies": {}
    },
    "com.unity.modules.unitywebrequestassetbundle": {
      "version": "1.0.0",
      "depth": 0,
      "source": "builtin",
      "dependencies": {
        "com.unity.modules.assetbundle": "1.0.0",
        "com.unity.modules.unitywebrequest": "1.0.0"
      }
    },
    "com.unity.modules.unitywebrequestaudio": {
      "version": "1.0.0",
      "depth": 0,
      "source": "builtin",
      "dependencies": {
        "com.unity.modules.unitywebrequest": "1.0.0",
        "com.unity.modules.audio": "1.0.0"
      }
    },
    "com.unity.modules.unitywebrequesttexture": {
      "version": "1.0.0",
      "depth": 0,
      "source": "builtin",
      "dependencies": {
        "com.unity.modules.unitywebrequest": "1.0.0",
        "com.unity.modules.imageconversion": "1.0.0"
      }
    },
    "com.unity.modules.unitywebrequestwww": {
      "version": "1.0.0",
      "depth": 0,
      "source": "builtin",
      "dependencies": {
        "com.unity.modules.unitywebrequest": "1.0.0",
        "com.unity.modules.unitywebrequestassetbundle": "1.0.0",
        "com.unity.modules.unitywebrequestaudio": "1.0.0",
        "com.unity.modules.audio": "1.0.0",
        "com.unity.modules.assetbundle": "1.0.0",
        "com.unity.modules.imageconversion": "1.0.0"
      }
    },
    "com.unity.modules.vehicles": {
      "version": "1.0.0",
      "depth": 0,
      "source": "builtin",
      "dependencies": {
        "com.unity.modules.physics": "1.0.0"
      }
    },
    "com.unity.modules.video": {
      "version": "1.0.0",
      "depth": 0,
      "source": "builtin",
      "dependencies": {
        "com.unity.modules.audio": "1.0.0",
        "com.unity.modules.ui": "1.0.0",
        "com.unity.modules.unitywebrequest": "1.0.0"
      }
    },
    "com.unity.modules.vr": {
      "version": "1.0.0",
      "depth": 0,
      "source": "builtin",
      "dependencies": {
        "com.unity.modules.jsonserialize": "1.0.0",
        "com.unity.modules.physics": "1.0.0",
        "com.unity.modules.xr": "1.0.0"
      }
    },
    "com.unity.modules.wind": {
      "version": "1.0.0",
      "depth": 0,
      "source": "builtin",
      "dependencies": {}
    },
    "com.unity.modules.xr": {
      "version": "1.0.0",
      "depth": 0,
      "source": "builtin",
      "dependencies": {
        "com.unity.modules.physics": "1.0.0",
        "com.unity.modules.jsonserialize": "1.0.0",
        "com.unity.modules.subsystems": "1.0.0"
      }
    }
  }
}
